module apirest

go 1.20

require github.com/go-sql-driver/mysql v1.8.0

require (
	filippo.io/edwards25519 v1.1.0 // indirect
	github.com/gorilla/mux v1.8.1 // indirect
	gopkg.in/yaml.v3 v3.0.1 // indirect
)
